<?xml version="1.0" encoding="utf-8"?>
<svg version="1.1" id="Capa_1" xmlns="http://www.w3.org/2000/svg" xmlns:xlink="http://www.w3.org/1999/xlink" viewBox="0 0 1920 1080" xml:space="preserve" preserveAspectRatio="none">
	<style type="text/css">
		.st0{fill:#007BD6;}
	</style>
	<polygon id="bg_2_" class="st0" points="0,0 1920,0 960,540 0,1080 "/>
</svg>
