<?xml version="1.0" encoding="utf-8"?>
<!-- Generator: Adobe Illustrator 22.1.0, SVG Export Plug-In . SVG Version: 6.00 Build 0)  -->
<svg version="1.1" xmlns="http://www.w3.org/2000/svg" xmlns:xlink="http://www.w3.org/1999/xlink" x="0px" y="0px"
	 viewBox="0 0 300 500" style="enable-background:new 0 0 300 500;" xml:space="preserve">
<style type="text/css">
	.st0{fill:#007BD6;}
	.st1{fill:#FFFFFF;}
	.st2{fill:#00508C;}
	.st3{fill:#EF7100;}
	.st4{fill:none;stroke:#007BD6;stroke-width:0.8;stroke-linecap:round;stroke-linejoin:round;stroke-miterlimit:10;}
	.st5{fill:none;}
	.st6{fill:#F9BF12;}
	.st7{opacity:0.15;}
	.st8{fill:#1E1E1E;}
	.st9{fill:#303030;}
</style>
<g id="Capa_9">
	<g>
		<path class="st0" d="M241.7,150.5c-20-27.7-53.4-45.8-91.3-45.8c-37.8,0-71.2,18.2-91.3,45.8H17.6v175.9
			c38.8,169.7,265,173,265,173v-173V150.5H241.7z"/>
		<path class="st2" d="M282.5,326.5V455c0,0-185-2.5-216.6-128.6H282.5z"/>
		<polygon class="st3" points="118,251.2 150.5,291.5 181.1,251.2 				"/>
		<g>
			<path class="st2" d="M101.3,136.4L101.3,136.4L101.3,136.4c-6.5-1.9-13.3-3-20.3-3.2c-16.2-1.9-42.4-3.8-79.6-3
				c0,0-3.7,65.6,2.5,82.3v0c3.6,36.8,35.9,65.6,75.2,65.6c41.7,0,75.5-32.5,75.5-72.5C154.5,173.1,132.1,145.5,101.3,136.4z"/>
			<path class="st1" d="M140.4,205.6c0,32.6-27.5,59-61.4,59c-33.9,0-61.4-26.4-61.4-59c0-32.6,27.5-59,61.4-59
				C112.9,146.7,140.4,173.1,140.4,205.6z"/>
			<path class="st2" d="M198.8,136.4L198.8,136.4L198.8,136.4c6.4-1.9,13.3-3,20.3-3.2c16.2-1.9,42.5-3.8,79.7-3
				c0,0,3.7,65.6-2.4,82.3l0,0c-3.6,36.8-35.8,65.6-75.2,65.6c-41.7,0-75.5-32.5-75.5-72.5C145.6,173.1,168,145.5,198.8,136.4z"/>
			<path class="st1" d="M159.7,205.6c0,32.6,27.5,59,61.4,59c33.9,0,61.4-26.4,61.4-59c0-32.6-27.5-59-61.4-59
				C187.2,146.7,159.7,173.1,159.7,205.6z"/>
			<path d="M116.4,202.1c-0.1,0.9-0.2,1.8-0.6,2.7c-2.2,6.5-9.5,10-16.3,7.9c-6.7-2.1-10.4-9.1-8.2-15.6c1.2-3.3,3.7-5.8,6.7-7.3
				c-14.9-3.2-30.1,4.8-35,19c-5.2,15.1,3.4,31.3,19,36.2c15.7,4.9,32.6-3.2,37.8-18.3C122.8,218.1,121.3,209.1,116.4,202.1z"/>
			<path d="M236,202.1c-0.1,0.9-0.2,1.8-0.6,2.7c-2.2,6.5-9.5,10-16.2,7.9c-6.8-2.1-10.5-9.1-8.3-15.6c1.2-3.3,3.7-5.8,6.7-7.3
				c-14.9-3.2-30.1,4.8-35,19c-5.2,15.1,3.4,31.3,19,36.2c15.7,4.9,32.6-3.2,37.7-18.3C242.4,218.1,240.8,209.1,236,202.1z"/>
		</g>
		<g>
			<path class="st4" d="M189.1,344.9c0,14.9-13.2,27-29.6,27c-16.3,0-29.5-12.1-29.5-27"/>
			<path class="st4" d="M248.2,346.2c0,14.9-13.2,27.1-29.6,27.1c-16.3,0-29.6-12.1-29.6-27.1"/>
			<path class="st4" d="M223.1,371.9c0,18.8-14.1,34-31.7,34c-17.5,0-31.8-15.2-31.8-34"/>
		</g>
	</g>
	<g>
		<g>
			<line class="st5" x1="53" y1="60.4" x2="53" y2="108.3"/>
			<rect x="51.3" y="60.4" class="st6" width="3.4" height="47.9"/>
		</g>
		<g>
			<path class="st6" d="M52.9,118.1c0,0-6.8-0.3-6.7,7.9c0.1,4.6-0.7,13,6.7,16.1c7.4,3.1,11.8,1.5,13.8,0c0,0-4.7,0.4-4.7-6
				c0-2.1,0.7-9.9-0.4-12.9C59.2,116.7,54.1,117.8,52.9,118.1z"/>
		</g>
		<g>
			<g class="st7">
				<path d="M45.4,113.6c0-4,3.4-7.3,7.6-7.3c4.2,0,7.6,3.2,7.6,7.3c0,4-3.4,7.3-7.6,7.3C48.7,120.9,45.4,117.6,45.4,113.6z"/>
			</g>
			<g>
				<path class="st6" d="M45.4,112.6c0-4,3.4-7.3,7.6-7.3c4.2,0,7.6,3.3,7.6,7.3c0,4-3.4,7.3-7.6,7.3 C48.7,119.8,45.4,116.6,45.4,112.6z"/>
			</g>
		</g>
	</g>
	<path class="st8" d="M84.2,71.5v50.8c0,0,25.4,26.7,65.8,24.3c40.3-2.4,54.2-12.4,65.8-23.5L215,73.3L84.2,71.5z"/>
	<g>
		<g>
			<polygon points="84.2,75.7 148.5,102.2 215,75.7 149.6,96.3"/>
			<polygon class="st9" points="5.9,51 152.6,0.8 293.2,51 149.6,96.3"/>
		</g>
	</g>
</g>
</svg>
